EESchema Schematic File Version 4
LIBS:electronic_load_v2-cache
EELAYER 30 0
EELAYER END
$Descr A4 11693 8268
encoding utf-8
Sheet 1 1
Title "Electronic Load"
Date ""
Rev ""
Comp ""
Comment1 ""
Comment2 ""
Comment3 ""
Comment4 ""
$EndDescr
$Comp
L Connector:Conn_01x02_Male J2
U 1 1 5D363276
P 10200 950
F 0 "J2" H 10172 832 50  0000 R CNN
F 1 "LOAD" H 10172 923 50  0000 R CNN
F 2 "TerminalBlock:TerminalBlock_bornier-2_P5.08mm" H 10200 950 50  0001 C CNN
F 3 "~" H 10200 950 50  0001 C CNN
	1    10200 950 
	-1   0    0    1   
$EndComp
$Comp
L power:GND #PWR0102
U 1 1 5D36362E
P 9900 1050
F 0 "#PWR0102" H 9900 800 50  0001 C CNN
F 1 "GND" H 9905 877 50  0000 C CNN
F 2 "" H 9900 1050 50  0001 C CNN
F 3 "" H 9900 1050 50  0001 C CNN
	1    9900 1050
	1    0    0    -1  
$EndComp
$Comp
L Device:R R3
U 1 1 5D36688D
P 3400 1850
F 0 "R3" V 3300 1900 50  0000 R CNN
F 1 "100" V 3200 1900 50  0000 R CNN
F 2 "Resistor_THT:R_Axial_DIN0207_L6.3mm_D2.5mm_P7.62mm_Horizontal" V 3330 1850 50  0001 C CNN
F 3 "~" H 3400 1850 50  0001 C CNN
	1    3400 1850
	0    -1   -1   0   
$EndComp
Wire Wire Line
	2150 4100 1900 4100
Wire Wire Line
	2150 3450 1900 3450
Wire Wire Line
	1900 3450 1900 4100
Wire Wire Line
	2150 2750 1900 2750
Wire Wire Line
	1900 2750 1900 3450
Connection ~ 1900 3450
Wire Wire Line
	2100 3150 2100 2950
Wire Wire Line
	2100 2950 2150 2950
Wire Wire Line
	2150 3650 2100 3650
Wire Wire Line
	2100 3650 2100 3850
Wire Wire Line
	2100 4500 2100 4300
Wire Wire Line
	2100 4300 2150 4300
$Comp
L Device:R_POT RV1
U 1 1 5D3A062F
P 850 2750
F 0 "RV1" H 780 2796 50  0000 R CNN
F 1 "10k" H 780 2705 50  0000 R CNN
F 2 "Connector_Molex:Molex_KK-254_AE-6410-03A_1x03_P2.54mm_Vertical" H 850 2750 50  0001 C CNN
F 3 "~" H 850 2750 50  0001 C CNN
	1    850  2750
	1    0    0    -1  
$EndComp
$Comp
L power:GND #PWR0103
U 1 1 5D3A3072
P 850 2900
F 0 "#PWR0103" H 850 2650 50  0001 C CNN
F 1 "GND" H 855 2727 50  0000 C CNN
F 2 "" H 850 2900 50  0001 C CNN
F 3 "" H 850 2900 50  0001 C CNN
	1    850  2900
	1    0    0    -1  
$EndComp
Text GLabel 850  2350 1    50   Input ~ 0
+12V
Wire Wire Line
	850  2350 850  2600
$Comp
L Device:D_Bridge_+-AA D1
U 1 1 5D3A5EC6
P 4700 6350
F 0 "D1" H 4450 6500 50  0000 R CNN
F 1 "D_Bridge_+-AA" H 5044 6305 50  0001 L CNN
F 2 "Diode_THT:Diode_Bridge_DIP-4_W7.62mm_P5.08mm" H 4700 6350 50  0001 C CNN
F 3 "~" H 4700 6350 50  0001 C CNN
	1    4700 6350
	-1   0    0    -1  
$EndComp
$Comp
L Connector:Conn_01x02_Male J4
U 1 1 5D3A6845
P 5950 6450
F 0 "J4" H 5922 6332 50  0000 R CNN
F 1 "AC" H 5922 6423 50  0000 R CNN
F 2 "Connector_Molex:Molex_KK-254_AE-6410-02A_1x02_P2.54mm_Vertical" H 5950 6450 50  0001 C CNN
F 3 "~" H 5950 6450 50  0001 C CNN
	1    5950 6450
	-1   0    0    1   
$EndComp
Wire Wire Line
	5750 6350 5750 5800
Wire Wire Line
	5750 5800 4700 5800
Wire Wire Line
	4700 5800 4700 6050
Wire Wire Line
	5750 6450 5750 6800
Wire Wire Line
	5750 6800 4700 6800
Wire Wire Line
	4700 6800 4700 6650
$Comp
L Device:CP C2
U 1 1 5D3B1407
P 4150 6600
F 0 "C2" H 4268 6646 50  0000 L CNN
F 1 "330uF" H 4268 6555 50  0000 L CNN
F 2 "Capacitor_THT:CP_Radial_D8.0mm_P3.50mm" H 4188 6450 50  0001 C CNN
F 3 "~" H 4150 6600 50  0001 C CNN
	1    4150 6600
	1    0    0    -1  
$EndComp
Wire Wire Line
	4150 6450 4150 6350
Wire Wire Line
	4150 6350 4400 6350
$Comp
L power:GND #PWR0104
U 1 1 5D3B4043
P 5100 6550
F 0 "#PWR0104" H 5100 6300 50  0001 C CNN
F 1 "GND" H 5105 6377 50  0000 C CNN
F 2 "" H 5100 6550 50  0001 C CNN
F 3 "" H 5100 6550 50  0001 C CNN
	1    5100 6550
	1    0    0    -1  
$EndComp
Wire Wire Line
	5100 6550 5100 6350
Wire Wire Line
	5100 6350 5000 6350
$Comp
L power:GND #PWR0105
U 1 1 5D3B6A0C
P 4150 6750
F 0 "#PWR0105" H 4150 6500 50  0001 C CNN
F 1 "GND" H 4155 6577 50  0000 C CNN
F 2 "" H 4150 6750 50  0001 C CNN
F 3 "" H 4150 6750 50  0001 C CNN
	1    4150 6750
	1    0    0    -1  
$EndComp
$Comp
L power:GND #PWR0106
U 1 1 5D3B77A4
P 2600 7000
F 0 "#PWR0106" H 2600 6750 50  0001 C CNN
F 1 "GND" H 2605 6827 50  0000 C CNN
F 2 "" H 2600 7000 50  0001 C CNN
F 3 "" H 2600 7000 50  0001 C CNN
	1    2600 7000
	1    0    0    -1  
$EndComp
$Comp
L Regulator_Linear:LM7812_TO220 U3
U 1 1 5D3B7F4C
P 3700 6350
F 0 "U3" H 3700 6592 50  0000 C CNN
F 1 "78M12" H 3700 6501 50  0000 C CNN
F 2 "Package_TO_SOT_SMD:TO-252-2" H 3700 6575 50  0001 C CIN
F 3 "http://www.fairchildsemi.com/ds/LM/LM7805.pdf" H 3700 6300 50  0001 C CNN
	1    3700 6350
	-1   0    0    -1  
$EndComp
Wire Wire Line
	4000 6350 4150 6350
Connection ~ 4150 6350
$Comp
L power:GND #PWR0107
U 1 1 5D3BB938
P 3700 6650
F 0 "#PWR0107" H 3700 6400 50  0001 C CNN
F 1 "GND" H 3705 6477 50  0000 C CNN
F 2 "" H 3700 6650 50  0001 C CNN
F 3 "" H 3700 6650 50  0001 C CNN
	1    3700 6650
	1    0    0    -1  
$EndComp
$Comp
L Device:C C1
U 1 1 5D3BF2CA
P 3200 6600
F 0 "C1" H 3315 6646 50  0000 L CNN
F 1 "1uF" H 3315 6555 50  0000 L CNN
F 2 "Capacitor_THT:C_Disc_D4.7mm_W2.5mm_P5.00mm" H 3238 6450 50  0001 C CNN
F 3 "~" H 3200 6600 50  0001 C CNN
	1    3200 6600
	1    0    0    -1  
$EndComp
Wire Wire Line
	3200 6450 3200 6350
Wire Wire Line
	3200 6350 3400 6350
$Comp
L power:GND #PWR0108
U 1 1 5D3C437C
P 3200 6750
F 0 "#PWR0108" H 3200 6500 50  0001 C CNN
F 1 "GND" H 3205 6577 50  0000 C CNN
F 2 "" H 3200 6750 50  0001 C CNN
F 3 "" H 3200 6750 50  0001 C CNN
	1    3200 6750
	1    0    0    -1  
$EndComp
Wire Wire Line
	2600 6400 2600 6350
Wire Wire Line
	2600 6350 3200 6350
Connection ~ 3200 6350
Text GLabel 2600 6200 1    50   Input ~ 0
+12V
Wire Wire Line
	2600 6200 2600 6350
Connection ~ 2600 6350
$Comp
L Device:R R1
U 1 1 5D3EA300
P 1300 2750
F 0 "R1" V 1507 2750 50  0000 C CNN
F 1 "220k" V 1416 2750 50  0000 C CNN
F 2 "Resistor_THT:R_Axial_DIN0207_L6.3mm_D2.5mm_P7.62mm_Horizontal" V 1230 2750 50  0001 C CNN
F 3 "~" H 1300 2750 50  0001 C CNN
	1    1300 2750
	0    -1   -1   0   
$EndComp
$Comp
L Device:R R2
U 1 1 5D3EAB19
P 1600 3050
F 0 "R2" H 1670 3096 50  0000 L CNN
F 1 "22k" H 1670 3005 50  0000 L CNN
F 2 "Resistor_THT:R_Axial_DIN0207_L6.3mm_D2.5mm_P7.62mm_Horizontal" V 1530 3050 50  0001 C CNN
F 3 "~" H 1600 3050 50  0001 C CNN
	1    1600 3050
	1    0    0    -1  
$EndComp
Wire Wire Line
	1900 2750 1600 2750
Wire Wire Line
	1600 2750 1600 2900
Connection ~ 1900 2750
Wire Wire Line
	1600 2750 1450 2750
Connection ~ 1600 2750
$Comp
L power:GND #PWR0109
U 1 1 5D3F681C
P 1600 3200
F 0 "#PWR0109" H 1600 2950 50  0001 C CNN
F 1 "GND" H 1605 3027 50  0000 C CNN
F 2 "" H 1600 3200 50  0001 C CNN
F 3 "" H 1600 3200 50  0001 C CNN
	1    1600 3200
	1    0    0    -1  
$EndComp
$Comp
L Connector:Conn_01x02_Male J3
U 1 1 5D363927
P 1250 6450
F 0 "J3" H 1222 6332 50  0000 R CNN
F 1 "FAN" H 1222 6423 50  0000 R CNN
F 2 "Connector_Molex:Molex_KK-254_AE-6410-02A_1x02_P2.54mm_Vertical" H 1250 6450 50  0001 C CNN
F 3 "~" H 1250 6450 50  0001 C CNN
	1    1250 6450
	1    0    0    1   
$EndComp
$Comp
L power:GND #PWR0110
U 1 1 5D366D78
P 1550 6550
F 0 "#PWR0110" H 1550 6300 50  0001 C CNN
F 1 "GND" H 1555 6377 50  0000 C CNN
F 2 "" H 1550 6550 50  0001 C CNN
F 3 "" H 1550 6550 50  0001 C CNN
	1    1550 6550
	-1   0    0    -1  
$EndComp
Wire Wire Line
	1550 6550 1550 6450
Wire Wire Line
	1550 6450 1450 6450
Wire Wire Line
	9900 1050 9900 950 
Wire Wire Line
	9900 950  10000 950 
$Comp
L Connector:Conn_01x02_Male J1
U 1 1 5D36DCEB
P 3450 2700
F 0 "J1" H 3422 2582 50  0000 R CNN
F 1 "SHUNT" H 3422 2673 50  0000 R CNN
F 2 "TerminalBlock:TerminalBlock_bornier-2_P5.08mm" H 3450 2700 50  0001 C CNN
F 3 "~" H 3450 2700 50  0001 C CNN
	1    3450 2700
	1    0    0    -1  
$EndComp
Wire Wire Line
	2050 5300 2050 5050
Wire Wire Line
	2050 5050 2150 5050
Wire Wire Line
	1000 2750 1150 2750
Wire Wire Line
	2150 4850 1900 4850
Wire Wire Line
	1900 4850 1900 4100
Connection ~ 1900 4100
$Comp
L Amplifier_Operational:LM324 U1
U 1 1 5D3B2C10
P 2450 3550
F 0 "U1" H 2450 3917 50  0000 C CNN
F 1 "LM324" H 2450 3826 50  0000 C CNN
F 2 "Package_DIP:DIP-14_W7.62mm_Socket_LongPads" H 2400 3650 50  0001 C CNN
F 3 "http://www.ti.com/lit/ds/symlink/lm2902-n.pdf" H 2500 3750 50  0001 C CNN
	1    2450 3550
	1    0    0    -1  
$EndComp
$Comp
L Amplifier_Operational:LM324 U1
U 2 1 5D3B4EBA
P 2450 2850
F 0 "U1" H 2450 3217 50  0000 C CNN
F 1 "LM324" H 2450 3126 50  0000 C CNN
F 2 "Package_DIP:DIP-14_W7.62mm_Socket_LongPads" H 2400 2950 50  0001 C CNN
F 3 "http://www.ti.com/lit/ds/symlink/lm2902-n.pdf" H 2500 3050 50  0001 C CNN
	2    2450 2850
	1    0    0    -1  
$EndComp
$Comp
L Amplifier_Operational:LM324 U1
U 3 1 5D3B6852
P 2450 4950
F 0 "U1" H 2450 5317 50  0000 C CNN
F 1 "LM324" H 2450 5226 50  0000 C CNN
F 2 "Package_DIP:DIP-14_W7.62mm_Socket_LongPads" H 2400 5050 50  0001 C CNN
F 3 "http://www.ti.com/lit/ds/symlink/lm2902-n.pdf" H 2500 5150 50  0001 C CNN
	3    2450 4950
	1    0    0    -1  
$EndComp
$Comp
L Amplifier_Operational:LM324 U1
U 4 1 5D3B819F
P 2450 4200
F 0 "U1" H 2450 4567 50  0000 C CNN
F 1 "LM324" H 2450 4476 50  0000 C CNN
F 2 "Package_DIP:DIP-14_W7.62mm_Socket_LongPads" H 2400 4300 50  0001 C CNN
F 3 "http://www.ti.com/lit/ds/symlink/lm2902-n.pdf" H 2500 4400 50  0001 C CNN
	4    2450 4200
	1    0    0    -1  
$EndComp
$Comp
L Amplifier_Operational:LM324 U1
U 5 1 5D3B95DB
P 2700 6700
F 0 "U1" H 2658 6746 50  0000 L CNN
F 1 "LM324" H 2658 6655 50  0000 L CNN
F 2 "Package_DIP:DIP-14_W7.62mm_Socket_LongPads" H 2650 6800 50  0001 C CNN
F 3 "http://www.ti.com/lit/ds/symlink/lm2902-n.pdf" H 2750 6900 50  0001 C CNN
	5    2700 6700
	1    0    0    -1  
$EndComp
$Comp
L Device:R R4
U 1 1 5D35E617
P 4100 2350
F 0 "R4" H 4170 2396 50  0000 L CNN
F 1 "0.1/3W" H 4150 2200 50  0000 L CNN
F 2 "Resistor_THT:R_Axial_DIN0516_L15.5mm_D5.0mm_P5.08mm_Vertical" V 4030 2350 50  0001 C CNN
F 3 "~" H 4100 2350 50  0001 C CNN
	1    4100 2350
	1    0    0    -1  
$EndComp
$Comp
L Device:Q_NMOS_GDS Q1
U 1 1 5D35DB30
P 4000 1850
F 0 "Q1" H 4206 1896 50  0000 L CNN
F 1 "IRF530" H 4206 1805 50  0000 L CNN
F 2 "Package_TO_SOT_THT:TO-220-3_Horizontal_TabDown" H 4200 1950 50  0001 C CNN
F 3 "~" H 4000 1850 50  0001 C CNN
	1    4000 1850
	1    0    0    -1  
$EndComp
Wire Wire Line
	4100 2050 4100 2100
$Comp
L Device:C_Small C3
U 1 1 5D3C0698
P 2850 3000
F 0 "C3" H 2942 3046 50  0000 L CNN
F 1 "1n" H 2942 2955 50  0000 L CNN
F 2 "Capacitor_THT:C_Disc_D4.3mm_W1.9mm_P5.00mm" H 2850 3000 50  0001 C CNN
F 3 "~" H 2850 3000 50  0001 C CNN
	1    2850 3000
	1    0    0    -1  
$EndComp
Wire Wire Line
	2750 2850 2850 2850
Wire Wire Line
	3050 2850 3050 1850
Wire Wire Line
	3050 1850 3250 1850
Wire Wire Line
	4100 2100 4000 2100
Wire Wire Line
	4000 2100 4000 3150
Connection ~ 4100 2100
Wire Wire Line
	4100 2100 4100 2200
$Comp
L power:GND #PWR0111
U 1 1 5D3C9A05
P 3650 2800
F 0 "#PWR0111" H 3650 2550 50  0001 C CNN
F 1 "GND" H 3655 2627 50  0000 C CNN
F 2 "" H 3650 2800 50  0001 C CNN
F 3 "" H 3650 2800 50  0001 C CNN
	1    3650 2800
	1    0    0    -1  
$EndComp
Wire Wire Line
	3650 2700 4100 2700
Wire Wire Line
	4100 2700 4100 2500
$Comp
L Device:R R5
U 1 1 5D3CE2B8
P 4850 1850
F 0 "R5" V 4750 1900 50  0000 R CNN
F 1 "100" V 4650 1900 50  0000 R CNN
F 2 "Resistor_THT:R_Axial_DIN0207_L6.3mm_D2.5mm_P7.62mm_Horizontal" V 4780 1850 50  0001 C CNN
F 3 "~" H 4850 1850 50  0001 C CNN
	1    4850 1850
	0    -1   -1   0   
$EndComp
$Comp
L Device:R R6
U 1 1 5D3CE2BE
P 5550 2350
F 0 "R6" H 5620 2396 50  0000 L CNN
F 1 "0.1/3W" H 5600 2200 50  0000 L CNN
F 2 "Resistor_THT:R_Axial_DIN0516_L15.5mm_D5.0mm_P5.08mm_Vertical" V 5480 2350 50  0001 C CNN
F 3 "~" H 5550 2350 50  0001 C CNN
	1    5550 2350
	1    0    0    -1  
$EndComp
Wire Wire Line
	5550 2050 5550 2100
$Comp
L Device:C_Small C4
U 1 1 5D3CE2CB
P 2850 3700
F 0 "C4" H 2942 3746 50  0000 L CNN
F 1 "1n" H 2942 3655 50  0000 L CNN
F 2 "Capacitor_THT:C_Disc_D4.3mm_W1.9mm_P5.00mm" H 2850 3700 50  0001 C CNN
F 3 "~" H 2850 3700 50  0001 C CNN
	1    2850 3700
	1    0    0    -1  
$EndComp
Wire Wire Line
	4500 1850 4700 1850
Wire Wire Line
	5550 2100 5450 2100
Connection ~ 5550 2100
Wire Wire Line
	5550 2100 5550 2200
Wire Wire Line
	5550 2700 5550 2500
$Comp
L Device:R R7
U 1 1 5D3D0CE5
P 6350 1850
F 0 "R7" V 6250 1900 50  0000 R CNN
F 1 "100" V 6150 1900 50  0000 R CNN
F 2 "Resistor_THT:R_Axial_DIN0207_L6.3mm_D2.5mm_P7.62mm_Horizontal" V 6280 1850 50  0001 C CNN
F 3 "~" H 6350 1850 50  0001 C CNN
	1    6350 1850
	0    -1   -1   0   
$EndComp
$Comp
L Device:R R8
U 1 1 5D3D0CEB
P 7050 2350
F 0 "R8" H 7120 2396 50  0000 L CNN
F 1 "0.1/3W" H 7100 2200 50  0000 L CNN
F 2 "Resistor_THT:R_Axial_DIN0516_L15.5mm_D5.0mm_P5.08mm_Vertical" V 6980 2350 50  0001 C CNN
F 3 "~" H 7050 2350 50  0001 C CNN
	1    7050 2350
	1    0    0    -1  
$EndComp
Wire Wire Line
	7050 2050 7050 2100
$Comp
L Device:C_Small C5
U 1 1 5D3D0CF8
P 2850 4350
F 0 "C5" H 2942 4396 50  0000 L CNN
F 1 "1n" H 2942 4305 50  0000 L CNN
F 2 "Capacitor_THT:C_Disc_D4.3mm_W1.9mm_P5.00mm" H 2850 4350 50  0001 C CNN
F 3 "~" H 2850 4350 50  0001 C CNN
	1    2850 4350
	1    0    0    -1  
$EndComp
Wire Wire Line
	6000 1850 6200 1850
Wire Wire Line
	7050 2100 6950 2100
Connection ~ 7050 2100
Wire Wire Line
	7050 2100 7050 2200
Wire Wire Line
	7050 2700 7050 2500
$Comp
L Device:R R9
U 1 1 5D3D4173
P 7850 1850
F 0 "R9" V 7750 1900 50  0000 R CNN
F 1 "100" V 7650 1900 50  0000 R CNN
F 2 "Resistor_THT:R_Axial_DIN0207_L6.3mm_D2.5mm_P7.62mm_Horizontal" V 7780 1850 50  0001 C CNN
F 3 "~" H 7850 1850 50  0001 C CNN
	1    7850 1850
	0    -1   -1   0   
$EndComp
$Comp
L Device:R R10
U 1 1 5D3D4179
P 8550 2350
F 0 "R10" H 8620 2396 50  0000 L CNN
F 1 "0.1/3W" H 8600 2200 50  0000 L CNN
F 2 "Resistor_THT:R_Axial_DIN0516_L15.5mm_D5.0mm_P5.08mm_Vertical" V 8480 2350 50  0001 C CNN
F 3 "~" H 8550 2350 50  0001 C CNN
	1    8550 2350
	1    0    0    -1  
$EndComp
Wire Wire Line
	8550 2050 8550 2100
$Comp
L Device:C_Small C6
U 1 1 5D3D4186
P 2850 5150
F 0 "C6" H 2942 5196 50  0000 L CNN
F 1 "1n" H 2942 5105 50  0000 L CNN
F 2 "Capacitor_THT:C_Disc_D4.3mm_W1.9mm_P5.00mm" H 2850 5150 50  0001 C CNN
F 3 "~" H 2850 5150 50  0001 C CNN
	1    2850 5150
	1    0    0    -1  
$EndComp
Wire Wire Line
	7500 1850 7700 1850
Wire Wire Line
	8550 2100 8450 2100
Connection ~ 8550 2100
Wire Wire Line
	8550 2100 8550 2200
Wire Wire Line
	8550 2700 8550 2500
Wire Wire Line
	4500 1850 4500 3550
Wire Wire Line
	2750 3550 2850 3550
Wire Wire Line
	2100 3850 2850 3850
Wire Wire Line
	5450 2100 5450 3850
Wire Wire Line
	5550 2700 4100 2700
Connection ~ 4100 2700
Wire Wire Line
	6000 1850 6000 4200
Wire Wire Line
	2750 4200 2850 4200
Wire Wire Line
	2100 4500 2850 4500
Wire Wire Line
	6950 2100 6950 4500
Wire Wire Line
	7050 2700 5550 2700
Connection ~ 5550 2700
Wire Wire Line
	7500 1850 7500 4950
Wire Wire Line
	2750 4950 2850 4950
Wire Wire Line
	2050 5300 2850 5300
Wire Wire Line
	8450 2100 8450 5300
Wire Wire Line
	8550 2700 7050 2700
Connection ~ 7050 2700
Wire Wire Line
	8550 1650 8550 850 
Connection ~ 8550 850 
Wire Wire Line
	8550 850  10000 850 
Wire Wire Line
	7050 1650 7050 850 
Connection ~ 7050 850 
Wire Wire Line
	7050 850  8550 850 
Wire Wire Line
	5550 850  5550 1650
Wire Wire Line
	5550 850  7050 850 
Wire Wire Line
	5550 850  4100 850 
Wire Wire Line
	4100 850  4100 1650
Connection ~ 5550 850 
$Comp
L Device:Q_NMOS_GDS Q2
U 1 1 5D3F8037
P 5450 1850
F 0 "Q2" H 5656 1896 50  0000 L CNN
F 1 "IRF530" H 5656 1805 50  0000 L CNN
F 2 "Package_TO_SOT_THT:TO-220-3_Horizontal_TabDown" H 5650 1950 50  0001 C CNN
F 3 "~" H 5450 1850 50  0001 C CNN
	1    5450 1850
	1    0    0    -1  
$EndComp
$Comp
L Device:Q_NMOS_GDS Q3
U 1 1 5D3F8517
P 6950 1850
F 0 "Q3" H 7156 1896 50  0000 L CNN
F 1 "IRF530" H 7156 1805 50  0000 L CNN
F 2 "Package_TO_SOT_THT:TO-220-3_Horizontal_TabDown" H 7150 1950 50  0001 C CNN
F 3 "~" H 6950 1850 50  0001 C CNN
	1    6950 1850
	1    0    0    -1  
$EndComp
$Comp
L Device:Q_NMOS_GDS Q4
U 1 1 5D3F8B9F
P 8450 1850
F 0 "Q4" H 8656 1896 50  0000 L CNN
F 1 "IRF530" H 8656 1805 50  0000 L CNN
F 2 "Package_TO_SOT_THT:TO-220-3_Horizontal_TabDown" H 8650 1950 50  0001 C CNN
F 3 "~" H 8450 1850 50  0001 C CNN
	1    8450 1850
	1    0    0    -1  
$EndComp
$Comp
L Device:C_Small C7
U 1 1 5D4323D0
P 2250 6700
F 0 "C7" H 2342 6746 50  0000 L CNN
F 1 "100n" H 2342 6655 50  0000 L CNN
F 2 "Capacitor_SMD:C_1206_3216Metric_Pad1.42x1.75mm_HandSolder" H 2250 6700 50  0001 C CNN
F 3 "~" H 2250 6700 50  0001 C CNN
	1    2250 6700
	1    0    0    -1  
$EndComp
Wire Wire Line
	2250 6600 2250 6350
Wire Wire Line
	2250 6350 2600 6350
Wire Wire Line
	1450 6350 2250 6350
Connection ~ 2250 6350
$Comp
L power:GND #PWR0115
U 1 1 5D438A2A
P 2250 6800
F 0 "#PWR0115" H 2250 6550 50  0001 C CNN
F 1 "GND" H 2255 6627 50  0000 C CNN
F 2 "" H 2250 6800 50  0001 C CNN
F 3 "" H 2250 6800 50  0001 C CNN
	1    2250 6800
	-1   0    0    -1  
$EndComp
Text Label 4650 2700 0    50   ~ 0
LOAD-
Text Label 4550 850  0    50   ~ 0
LOAD+
Wire Wire Line
	2850 2900 2850 2850
Connection ~ 2850 2850
Wire Wire Line
	2850 2850 3050 2850
Wire Wire Line
	2850 3100 2850 3150
Wire Wire Line
	2850 3150 2100 3150
Wire Wire Line
	3550 1850 3800 1850
Wire Wire Line
	2850 5050 2850 4950
Connection ~ 2850 4950
Wire Wire Line
	2850 4950 7500 4950
Wire Wire Line
	2850 5250 2850 5300
Wire Wire Line
	2850 4450 2850 4500
Wire Wire Line
	2850 4250 2850 4200
Connection ~ 2850 4200
Wire Wire Line
	2850 4200 6000 4200
Wire Wire Line
	2850 3600 2850 3550
Connection ~ 2850 3550
Wire Wire Line
	2850 3550 4500 3550
Wire Wire Line
	2850 3800 2850 3850
Wire Wire Line
	5000 1850 5250 1850
Wire Wire Line
	6500 1850 6750 1850
Wire Wire Line
	8000 1850 8250 1850
$Comp
L Device:R R11
U 1 1 5D4B6E08
P 3450 3150
F 0 "R11" V 3350 3200 50  0000 R CNN
F 1 "10k" V 3250 3200 50  0000 R CNN
F 2 "Resistor_THT:R_Axial_DIN0207_L6.3mm_D2.5mm_P7.62mm_Horizontal" V 3380 3150 50  0001 C CNN
F 3 "~" H 3450 3150 50  0001 C CNN
	1    3450 3150
	0    -1   -1   0   
$EndComp
Wire Wire Line
	3600 3150 4000 3150
Wire Wire Line
	3300 3150 2850 3150
Connection ~ 2850 3150
$Comp
L Device:R R12
U 1 1 5D4BE3E7
P 3450 3850
F 0 "R12" V 3350 3900 50  0000 R CNN
F 1 "10k" V 3250 3900 50  0000 R CNN
F 2 "Resistor_THT:R_Axial_DIN0207_L6.3mm_D2.5mm_P7.62mm_Horizontal" V 3380 3850 50  0001 C CNN
F 3 "~" H 3450 3850 50  0001 C CNN
	1    3450 3850
	0    -1   -1   0   
$EndComp
Wire Wire Line
	3600 3850 5450 3850
Wire Wire Line
	3300 3850 2850 3850
Connection ~ 2850 3850
$Comp
L Device:R R13
U 1 1 5D4C5993
P 3450 4500
F 0 "R13" V 3350 4550 50  0000 R CNN
F 1 "10k" V 3250 4550 50  0000 R CNN
F 2 "Resistor_THT:R_Axial_DIN0207_L6.3mm_D2.5mm_P7.62mm_Horizontal" V 3380 4500 50  0001 C CNN
F 3 "~" H 3450 4500 50  0001 C CNN
	1    3450 4500
	0    -1   -1   0   
$EndComp
Wire Wire Line
	3300 4500 2850 4500
Connection ~ 2850 4500
Wire Wire Line
	3600 4500 6950 4500
$Comp
L Device:R R14
U 1 1 5D4CD1A6
P 3450 5300
F 0 "R14" V 3350 5350 50  0000 R CNN
F 1 "10k" V 3250 5350 50  0000 R CNN
F 2 "Resistor_THT:R_Axial_DIN0207_L6.3mm_D2.5mm_P7.62mm_Horizontal" V 3380 5300 50  0001 C CNN
F 3 "~" H 3450 5300 50  0001 C CNN
	1    3450 5300
	0    -1   -1   0   
$EndComp
Wire Wire Line
	3300 5300 2850 5300
Connection ~ 2850 5300
Wire Wire Line
	3600 5300 8450 5300
$EndSCHEMATC
